{
  "data": [
    {
      "vehicle": "benz",
      "price": 99,
      "shopName": "name1"
    },
    {
      "vehicle": "new_car",
      "price": 1000,
      "shopName": "name1"
    },
    {
      "vehicle": "this_is_car2",
      "price": 123123,
      "shopName": "name1"
    },
    {
      "vehicle": "mar",
      "price": 100,
      "shopName": "name1"
    }
  ],
  "links": [
    {
      "rel": "first",
      "href": "http://localhost:8763/shops/1/orders?page=0&size=10"
    },
    {
      "rel": "self",
      "href": "http://localhost:8763/shops/1/orders"
    },
    {
      "rel": "next",
      "href": "http://localhost:8763/shops/1/orders?page=1&size=10"
    },
    {
      "rel": "last",
      "href": "http://localhost:8763/shops/1/orders?page=2&size=10"
    }
  ],
  "meta": {
    "size": 10,
    "totalElements": 30,
    "totalPages": 3,
    "number": 0
  }
}